{
	"Token": "d016706898349d6f22301bcc97cd96c0",
	"CNPJAplicacao": "22734416000176",
	"CNPJEmpresa": "22734416000176",
	"IBGECidade": "3170404",
	"RazaoSocial": "PAULO CESAR BATISTA DA SILVA",
	"NomeFantasia": "PAULO CESAR BATISTA DA SILVA",
	"TipoPessoa": "1",
	"CNPJCPF": "89748514668",
	"RG": "7022336",
	"OrgaoExpedidorRG": "SSP/MG",
	"IE": "",
	"Celular": "38999653768",
	"Email": "",
	"CEP": "38610000",
	"Endereco": "DJALMA TORRES",
	"Complemento": "",
	"Numero": "1393",
	"Bairro": "CACHOEIRA",
	"_ClienteEnderecos": [
		{
			"BACENPais": 1058,
			"IBGEEstado": 31,
			"IBGECidade": 3170404,
			"CEP": "38610000",
			"Endereco": "DJALMA TORRES",
			"Complemento": "",
			"Numero": 1393,
			"Bairro": "CACHOEIRA"
		}
	]
}