{
  "CNPJAplicacao": "03286888000169",
  "Token": "6E1C12B19428DA4F5E3EC6795FE2266B",
  "CpfcnpjUsuario": "03286888000169",
  "Ativo": "true",
  "CnpjEmpresa": "",
  "Nome": "Ian Levi Guilherme Pires",
  "Rg": "5213654",
  "RgOrgaoExpedidor": "",
  "Referencia1": "",
  "Referencia2": "",
  "Cpf": "08377921006",
  "Sexo": "",
  "Cnh": "",
  "CnhCategoria": "",
  "ValidadeCNH": "",
  "Celular": "",
  "TipoContrato": 0,
  "StatusGR": "",
  "Email": "",
  "Foto": :[],
  "NomeMae": "",
  "NomePai": "",
  "DataNascimento": "",
  "Cep": "",
  "Endereco": "",
  "Complemento": "",
  "Numero": "",
  "Bairro": "",
  "IbgeCidade": 4204608,
  "IbgeEstado": 0,
  "BacenPais": 0
}
