{
	"Token": "d016706898349d6f22301bcc97cd96c0",
	"CNPJAplicacao": "22734416000176",
	"CNPJEmpresa": "22734416000176",
	"Placa": "AAA1111",
	"Chassi": "1231231231231",
	"Marca": "Ford", 
	"Modelo": "F250",
	"ComTracao": "True",
	"QuantidadeEixos": "2"
}