{
    "Sucesso": true,
    "Mensagem": "",
    "Objeto": {
        "IdViagem": 511389,
        "BloqueioGestor": null,
        "NumeroDocumento": "43565,43566",
        "IdsViagemEstabelecimento": [],
        "Eventos": [
            {
                "OperacaoCartao": {
                    "Status": 3,
                    "Mensagem": ""
                },
                "IdViagemEvento": 15050,
                "Token": "0154837906386655",
                "IdsViagemDocumento": [],
                "IdsViagemOutrosDescontos": [],
                "ViagemOutrosDescontos": [],
                "IdsViagemOutrosAcrescimos": [],
                "ViagemOutrosAcrescimos": [],
                "TipoEventoViagem": 0,
                "ValorBruto": 0
            },
            {
                "OperacaoCartao": {
                    "Status": 3,
                    "Mensagem": ""
                },
                "IdViagemEvento": 15051,
                "Token": "0015483790639293",
                "IdsViagemDocumento": [],
                "IdsViagemOutrosDescontos": [],
                "ViagemOutrosDescontos": [],
                "IdsViagemOutrosAcrescimos": [],
                "ViagemOutrosAcrescimos": [],
                "TipoEventoViagem": 1,
                "ValorBruto": 0
            }
        ],
        "CIOT": {
            "Resultado": 0,
            "Declarado": true,
            "Mensagem": null,
            "Dados": {
                "Ciot": "327005002027",
                "Verificador": "6615",
                "Senha": "2166",
                "EmContigencia": false,
                "DataDeclaracao": "2019-01-24 23:17:47",
                "AvisoTransportador": null
            }
        },
        "Pedagio": {
            "Status": 0,
            "Mensagem": null,
            "Valor": null,
            "ProtocoloRequisicao": null,
            "ProtocoloProcessamento": null,
            "EstornoSaldoResidualSolicitado": false
        }
    },
    "Faults": null
}