{
    "IdViagem": null,
    "Token": "d016706898349d6f22301bcc97cd96c0",
    "CNPJAplicacao": "22734416000176",
    "CNPJEmpresa": "22734416000176",
    "CPFCNPJClienteOrigem": "38180626091",
    "CPFCNPJClienteDestino": "38180626091",
    "_NumeroControle": "4799-control_ramon3",
    "CNPJFilial": "",
    "CodigoFilial": 222,
    "Placa": "MKO2804",
    "StatusViagem": 1,
    "CPFMotorista": "87968311039",
    "CPFCNPJProprietario": "95828448000104",
    "NomeProprietario": "Proprietario Ramon do postman",
    "NomeMotorista": "Motorista Ramon do postman",
    "RNTRC": "02355428",
    "DataPrevisaoEntrega": "2019/01/08 02:46:50 pm",
    "PesoSaida": 32000,
    "ValorMercadoria": 44600,
    "IRRPF": 100.01,
    "INSS": 10.2,
    "SESTSENAT": 10.3,
    "NumeroDocumento": "1012",
    "DataEmissao": "2019/01/08 02:46:50 pm",
    "Produto": "Terra",
    "Unidade": "1",
    "NumeroNota": "1997 - Nota",
    "Quantidade": "1",
    "Coleta": "Curitiba",
    "HabilitarDeclaracaoCiot": false,
    "DocumentoCliente": "171-466029-101",
    "Entrega": "São Paulo",
    "NaturezaCarga": 1201,
    "ViagemRegra": [
        {
            "TaxaAntecipacao": 10.9,
            "ToleranciaPeso": 0.25,
            "TarifaTonelada": 45,
            "TotalFrete": 4000,
            "TipoQuebraMercadoria": "Integral",
            "Fretelotacao": false
        }
    ],
    "ViagemEstabelecimentos": [],
    "ViagemEventos": [
        {
            "TipoEvento": 0,
            "ValorPagamento": 150,
            "ValorTotalPagamento": 1,
            "DataPagamento": "2019/01/08 02:46:50 pm",
            "HoraPagamento": "18:00:30",
            "HabilitarPagamentoCartao": "false",
            "Status": 0,
            "IRRPF": 300.01,
            "INSS": 30.2,
            "SESTSENAT": 30.3,
            "Instrucao": "Evento Adiantamento",
            "ValorBruto": 30
        },
        {
            "TipoEvento": 1,
            "ValorPagamento": 500,
            "ValorTotalPagamento": 2,
            "DataPagamento": "2019/01/08 02:46:50 pm",
            "HoraPagamento": "18:00:30",
            "Status": 0,
            "NumeroRecibo": 59595,
            "HabilitarPagamentoCartao": "false",
            "IRRPF": 300.01,
            "INSS": 30.2,
            "SESTSENAT": 30.3,
            "Instrucao": "Evento Saldo",
            "ValorBruto": 30,
            "ViagemDocumentos": [
                {
                    "TipoEvento": 1,
                    "Descricao": "Nota Fiscal",
                    "TipoDocumento": 2,
                    "NumeroDocumento": 478579,
                    "ObrigaAnexo": false
                }
            ],
            "ViagemOutrosDescontos": [
                {
                    "IdViagemOutrosDescontos": "10",
                    "NumeroDocumento": "23",
                    "Descricao": "Valor desconto",
                    "Valor": "1"
                }
            ],
            "ViagemOutrosAcrescimos": [
                {
                    "IdViagemOutrosDescontos": "15",
                    "NumeroDocumento": "28",
                    "Descricao": "Valor acrescimo",
                    "Valor": "2"
                }
            ]
        }
    ],
    "DocumentosFiscais": [
        {
            "IdViagemDocumentoFiscal": null,
            "NumeroDocumento": 9384,
            "Serie": "47",
            "PesoSaida": 30000,
            "Valor": 3384.99,
            "TipoDocumento": 1
        },
        {
            "IdViagemDocumentoFiscal": null,
            "NumeroDocumento": 9384,
            "Serie": "06",
            "PesoSaida": 28000,
            "Valor": 3384.99,
            "TipoDocumento": 0
        }
    ],
    "Pedagio": {
        "Fornecedor": 0,
        "TipoVeiculo": "Caminhao",
        "QtdEixos": 2,
        "localizacoes": [
            {
                "ibgeCidade": 4204608
            },
            {
                "ibgeCidade": 4205407
            }
        ]
    }
}